00:00.471;0.6893166,0.53708315,9.770931
00:00.629;0.3412903,9.690698,-1.4865587
00:00.788;0.3676355,9.7216835,-1.2600796
00:00.949;0.101488955,9.69429,-1.4988332
00:01.108;-0.3065625,9.664352,-1.6560063
00:01.268;-0.086071014,9.663754,-1.6853453
00:01.431;0.067509614,9.639504,-1.8193167
00:01.589;0.12663665,9.616752,-1.9332298
00:01.749;-0.07903565,9.508527,-2.4117846
00:01.912;-0.48888338,9.519155,-2.3198757
00:02.068;-0.36149827,9.5217,-2.3327491
00:02.228;-0.0955014,9.561517,-2.1915925
00:02.387;0.07244934,9.682316,-1.575324
00:02.549;-0.102686465,9.727821,-1.2620256
00:02.699;0.3930826,9.642947,-1.7592915
00:02.870;0.3887416,9.581875,-2.066902
00:03.027;0.31120285,9.582922,-2.0748353
00:03.179;0.18022522,9.605375,-1.9847227
00:03.329;0.07738907,9.591604,-2.0570223
00:03.488;0.103135526,9.570947,-2.1496797
00:03.649;0.22123992,9.561966,-2.180815
00:03.808;0.18681152,9.600735,-2.0065773
00:03.970;0.03876938,9.622141,-1.9100281
00:04.138;0.20806733,9.638456,-1.8146764
00:04.298;0.22049148,9.626781,-1.8741028
00:04.461;0.11032059,9.610166,-1.9667602
00:04.618;0.15702347,9.611064,-1.9592757
00:04.779;0.16899857,9.625284,-1.8871257
00:04.959;0.124391325,9.629176,-1.8703606
00:05.118;0.2161505,9.6163025,-1.9275416
00:05.282;0.26030868,9.599089,-2.0064275
00:05.440;0.23082,9.588012,-2.0621119
00:05.598;0.22064118,9.584719,-2.0785775
00:05.758;0.19699036,9.585467,-2.076931
00:05.918;0.20672013,9.580527,-2.0990849
00:06.079;0.19609222,9.575737,-2.1218376
00:06.239;0.16390915,9.580228,-2.1041744
00:06.398;0.11630814,9.586814,-2.0773802
00:06.564;0.101638645,9.587113,-2.0764818
00:06.718;0.1567241,9.590556,-2.0574715
00:06.879;0.17333955,9.593849,-2.0402572
00:07.038;0.19474502,9.594448,-2.0359163
00:07.203;0.1791774,9.592203,-2.0472927
00:07.358;0.16615447,9.592203,-2.0487895
00:07.518;0.16286133,9.585617,-2.0796254
00:07.669;0.10732681,9.575138,-2.1305196
00:07.830;0.101638645,9.573043,-2.140399
00:07.999;0.043409728,9.574839,-2.1341121
00:08.158;0.045205995,9.5737915,-2.139052
00:08.319;0.035476226,9.569151,-2.1600082
00:08.479;0.038020935,9.566157,-2.1731808
00:08.638;-0.06361771,9.571246,-2.1498294
00:08.799;-0.1115181,9.557775,-2.2071602
00:08.958;-0.025596771,9.545949,-2.2604494
00:09.124;0.051043853,9.531729,-2.3189776
00:09.278;0.11106903,9.528885,-2.3285577
00:09.459;0.13756393,9.529184,-2.3261628
00:09.598;0.2163002,9.514515,-2.3793023
00:09.758;0.24953109,9.510324,-2.3932233
00:09.919;0.24309449,9.511221,-2.3897805
00:10.078;0.26285338,9.514515,-2.3751109
00:10.238;0.30117372,9.518406,-2.3546035
00:10.398;0.35116974,9.513617,-2.3673272
00:10.558;0.30117372,9.517808,-2.3571482
00:10.719;0.22243744,9.53592,-2.2915847
00:10.878;0.2520758,9.531878,-2.3052063
00:11.035;0.23082,9.538614,-2.2796094
00:11.199;0.21300705,9.542207,-2.2661376
00:11.358;0.18291962,9.548344,-2.242936
00:11.519;0.18232086,9.55553,-2.2119503
00:11.678;0.160616,9.558373,-2.2017715
00:11.840;0.15058686,9.560768,-2.1917422
00:11.998;0.1790277,9.562565,-2.1815634
00:12.159;0.19549347,9.562116,-2.1823118
00:12.309;0.23740631,9.55972,-2.188898
00:12.479;0.26734406,9.559272,-2.186952
00:12.619;0.3435356,9.561217,-2.1680915
00:12.778;0.36928207,9.572444,-2.113455
00:12.938;0.4180806,9.576935,-2.0838168
00:13.098;0.4926256,9.570947,-2.0953426
00:13.260;0.55579424,9.566307,-2.100582
00:13.418;0.41074586,9.580527,-2.0683987
00:13.578;0.36808455,9.594598,-2.0104692
00:13.738;0.26704466,9.610914,-1.9475999
00:13.898;0.23321503,9.611663,-1.9483484
00:14.059;0.20836669,9.611663,-1.9514918
00:14.218;0.16555573,9.608219,-1.9722986
00:14.379;0.12573853,9.604328,-1.9940034
00:14.538;0.11241623,9.608519,-1.9746937
00:14.698;0.061072998,9.609267,-1.973047
00:14.860;-0.0119750975,9.608818,-1.9758911
00:15.018;-0.058079224,9.607172,-1.9836749
00:15.182;-0.14280304,9.583072,-2.0926483
00:15.338;-0.22617966,9.49236,-2.4652236
00:15.498;-0.2839595,9.299262,-3.1109807
00:15.657;-0.24788453,9.068742,-3.732638
00:15.818;-0.18516494,9.037157,-3.8118234
00:15.979;-0.24548951,8.990753,-3.9169047
00:16.138;-0.20701951,9.211395,-3.3678465
00:16.299;-0.04565506,9.532627,-2.3155348
00:16.450;0.04670288,9.732012,-1.2326866
00:16.619;-0.001646576,9.809851,-0.029788055
00:16.779;-0.20357665,9.763447,0.9316626
00:16.938;-0.23067032,9.609716,1.9580781
00:17.100;0.017663268,9.742191,1.1508069
00:17.259;0.28845015,9.797127,-0.4087999
00:17.419;0.45684996,9.616901,-1.8815873
00:17.579;0.6689589,9.289383,-3.0811927
00:17.739;0.73033124,8.846304,-4.1767645
00:18.459;0.5834866,8.337213,-5.1367183
00:18.496;0.50774413,8.275691,-5.243147
00:18.531;0.4260141,8.814869,-4.283792
00:18.554;0.20761825,9.404194,-2.78436
00:18.586;0.27108628,9.732311,-1.2018508
00:18.699;0.1977388,9.804312,0.26794282
00:18.858;0.023650818,9.746681,1.1121871
00:19.019;0.13771363,9.808653,0.07843689
00:19.179;0.3546126,9.696087,-1.4477893
00:19.339;0.22842498,9.514515,-2.3782544
00:19.500;0.123343505,9.039701,-3.8083804
00:19.658;0.016465759,8.38661,-5.089267
00:19.819;0.060474243,8.353679,-5.142706
00:19.971;0.2243834,8.897946,-4.1243734
00:20.138;0.13516891,9.504335,-2.425556
00:20.303;0.12918137,9.775123,-0.8161029
00:20.458;0.27348128,9.786649,-0.6167175
00:20.620;0.404908,9.777667,-0.6848259
00:20.778;0.4087999,9.775572,-0.7111711
00:20.939;0.31674135,9.773775,-0.7801776
00:21.098;0.28500733,9.771231,-0.82238984
00:21.258;0.26494902,9.769434,-0.8508307
00:21.424;0.2362088,9.765094,-0.90696394
00:21.578;0.15462846,9.766141,-0.9122031
00:21.738;0.22228774,9.762249,-0.9397458
00:21.898;0.3492238,9.755813,-0.96863574
00:22.059;0.497715,9.748628,-0.97597045
00:22.218;0.83286804,9.71854,-1.0446776
00:22.381;1.2088861,9.668993,-1.1332933
00:22.539;1.3687537,9.647139,-1.137335
00:22.699;1.3422588,9.65642,-1.0898836
00:22.859;1.346001,9.652378,-1.119971
00:23.019;1.3057348,9.65148,-1.1737093
00:23.179;1.2654685,9.654773,-1.1906241
00:23.339;1.2793895,9.647438,-1.2344829
00:23.499;1.2573853,9.6460905,-1.267564
00:23.660;1.0460248,9.676178,-1.2298425
00:23.818;0.91789126,9.682615,-1.2808864
00:23.979;0.9108559,9.675579,-1.3374687
00:24.132;0.8114626,9.6742325,-1.4088702
00:24.298;0.73691756,9.672286,-1.4626085
00:24.464;0.39727387,9.6935425,-1.453178
00:24.624;0.2336641,9.703422,-1.4223422
00:24.779;0.13681549,9.699679,-1.4605129
00:24.938;-0.09280701,9.742042,-1.1478131
00:25.102;-0.061671752,9.739945,-1.1680211
00:25.259;-0.04550537,9.796827,-0.5043013
00:25.419;-0.21375549,9.667646,-1.651366
00:25.580;-0.14834152,7.805518,-5.940247
00:25.731;0.18291962,9.475595,-2.5324337
00:25.898;-0.042810973,9.680819,-1.5862514
00:26.051;0.2188449,7.5881705,-6.213429
00:26.218;-0.02799179,9.703272,-1.4421011
00:26.379;0.07664063,9.428144,-2.7089167
00:26.538;0.36733612,7.8203373,-5.9113574
00:26.699;-0.1580713,9.785301,-0.6768924
00:26.858;-0.93540484,9.681567,-1.275797
00:27.018;-1.2054433,9.657766,-1.2284954
00:27.176;-1.0931767,9.661209,-1.3042378
00:27.338;-0.6649173,9.462124,-2.5023463
00:27.499;-0.5185217,9.758357,-0.86071014
00:27.658;0.11870316,9.487571,-2.4915688
00:27.820;0.24504043,9.373058,-2.8846514
00:28.731;-0.51582736,9.785301,-0.4658313
00:28.762;0.66910857,8.757838,-4.3689647
00:28.843;-0.6092331,9.560169,-2.1136048
00:28.871;0.0092807,9.044492,-3.7988005
00:28.927;0.30461654,8.90603,-4.1017704
00:28.968;0.24249573,8.991951,-3.9140606
00:29.028;0.26929,8.985215,-3.9278321
00:29.099;0.37601808,8.808133,-4.3023534
00:29.258;0.08951385,9.258846,-3.240611
00:29.423;-0.15073654,9.655521,-1.7271085
00:29.578;0.13831238,9.308244,-3.0939162
00:29.740;-0.44277924,9.314381,-3.0466146
00:29.903;-0.61087966,9.690399,-1.3995895
00:30.058;-0.44906616,9.795779,0.27393037
00:30.218;-0.20148101,9.801019,-0.3661386
00:30.383;0.18860778,9.503437,-2.4257057
00:30.540;-0.18247055,9.067544,-3.739374
00:30.700;-0.43364823,9.676178,-1.5548167
00:30.859;-0.12499008,9.809102,-0.036973115
00:31.018;0.47840515,9.74743,-0.9960287
00:31.179;0.68961596,9.025631,-3.7812867
00:31.344;-0.8292755,9.312734,-2.9701235
00:31.499;-0.65623534,9.706864,-1.2572355
00:31.658;0.15208374,9.784852,-0.6848259
00:31.818;0.51522857,9.646839,-1.7055533
00:31.982;0.56312895,9.073082,-3.6875815
00:32.139;0.05598358,9.300909,-3.1184652
00:32.301;-0.3156935,9.7305155,-1.2051439
00:32.459;1.3573773,8.734786,-4.2540035
00:32.619;-0.23426285,8.966504,-3.972589
00:32.783;0.16211289,9.807904,0.11750565
00:32.939;1.1045531,8.545729,-4.6888494
00:33.099;0.75562865,8.428673,-4.9620314
00:33.274;0.012723541,9.3100395,-3.0916708
00:33.422;-0.085472256,9.496102,-2.4598348
00:33.579;0.052840117,9.573492,-2.1402493
00:33.740;0.011226654,9.570498,-2.1540208
00:33.899;0.016166382,9.595496,-2.0395088
00:34.064;0.00464035,9.6091175,-1.9748433
00:34.229;0.09999207,9.577983,-2.1180954
00:34.379;0.00943039,9.566906,-2.169738
00:34.539;-0.07604187,9.550739,-2.239044
00:34.698;-0.4619394,9.523645,-2.306703
00:34.865;-0.6978488,9.479038,-2.4282503
00:35.018;-1.2660671,9.038654,-3.596571
00:35.177;-2.8630962,7.108867,-6.124065
00:35.334;1.3159136,3.100802,-9.21364
00:35.499;8.8581295,0.8852591,-4.1213794
00:35.654;3.5763628,6.501131,6.4170055
00:35.818;-7.206015,5.5212684,3.7181182
00:35.981;-5.724396,-7.779173,1.7188755
00:36.138;4.1314087,-6.219716,6.3625193
00:36.299;2.6143136,3.68354,8.708141
00:36.460;-6.396349,5.502707,5.004393
00:36.619;-9.7900915,0.18501526,-0.5968089
00:36.784;-2.647694,-0.9461824,-9.398506
00:36.939;8.688232,-0.23291565,-4.54934
00:37.098;3.609893,7.1178484,5.7043376
00:37.259;-6.555019,5.6940093,4.5658054
00:37.423;-7.741302,-5.9942846,0.61537033
00:37.578;4.0222855,-6.7087493,5.9203386
00:37.738;2.805915,4.7081594,8.136031
00:38.463;-6.810837,6.9663634,1.1481125
00:38.512;-8.887768,0.7776329,-4.079317
00:38.538;2.5045917,-2.0188518,-9.267677
00:38.566;9.278007,2.9873378,-1.1087444
00:38.602;-1.1558963,8.022267,5.5263577
00:38.698;-9.544901,2.2294638,-0.4010161
00:38.859;-2.5523424,-9.383388,1.294059
00:39.018;3.5763628,0.4926256,9.121432
00:39.179;-5.901328,6.1128383,4.903353
00:39.338;-7.722591,0.9327104,-5.97737
00:39.499;4.8686256,0.84708846,-8.474327
00:39.659;4.524641,8.356223,2.436184
00:39.818;-6.2111835,7.2717285,2.1859045
00:39.978;-8.637788,-4.6123586,0.59516233
00:40.138;3.1909144,-8.805439,2.9187803
00:40.304;2.5230033,5.141658,7.9643383
00:40.459;-6.731352,7.1361103,0.016316071
00:40.622;-8.3355665,1.0283616,-5.069508
00:40.778;-5.463339,0.6806346,-8.119565
00:40.939;-2.6017396,6.6485744,-6.7277594
00:41.098;-0.5875282,9.432036,-2.6319768
00:41.258;-0.9827064,9.721983,-0.8680449
00:41.436;-0.6328839,9.775123,-0.5297484
00:41.579;-1.541195,9.666449,-0.64830184
00:41.739;-1.4123131,9.648187,-1.0737172
00:41.899;-0.80652285,9.6863575,-1.3263917
00:42.059;-0.65803164,9.687255,-1.3997393
00:42.219;-0.4540059,9.696386,-1.4174025
00:42.378;-0.3607498,9.698182,-1.4322217
00:42.539;-0.2974315,9.695937,-1.461411
00:42.698;-0.24788453,9.693692,-1.4853612
00:42.868;-0.20297791,9.685459,-1.5447876
00:43.259;-0.1978885,9.686058,-1.541195
00:43.286;-0.16974701,9.690399,-1.5178436
00:43.359;-0.13816269,9.68995,-1.5230827
00:43.518;-0.123193815,9.689052,-1.5304174
00:43.678;-0.10074051,9.689052,-1.5320641
00:43.838;-0.07155121,9.687405,-1.5443386
00:43.998;-0.03966751,9.691446,-1.5194902
00:44.159;-0.029937744,9.693692,-1.5057188
00:44.318;-0.020357667,9.696985,-1.4843134
00:44.479;-0.028590545,9.697734,-1.479224
00:44.638;5.987549E-4,9.695787,-1.4926959
00:44.798;0.010029145,9.69444,-1.5006294
00:44.959;0.04101471,9.69459,-1.499432
00:45.119;0.033530273,9.695937,-1.491199
00:45.280;0.09340576,9.693243,-1.5055691
00:45.438;0.15103592,9.691596,-1.5112573
00:45.601;0.17124389,9.690847,-1.5144008
00:45.758;0.1978885,9.690847,-1.5108082
00:45.919;0.27887008,9.698032,-1.4509327
00:46.079;0.5771997,9.705667,-1.3043876
00:46.238;1.479224,9.624386,-1.190175
00:46.399;3.1793885,9.186397,-1.3178595
00:46.560;5.1394124,8.178692,-1.7116905
00:46.720;6.845415,6.8044,-1.753304
00:46.879;8.08858,5.0479527,-2.3079007
00:47.039;8.329878,4.548142,-2.4819887
00:47.201;7.595056,5.7579265,-2.3228695
00:47.359;5.4693265,7.875273,-2.0737875
00:47.519;2.449057,9.339828,-1.733096
00:47.677;-1.7880318,9.55523,-1.3174105
00:47.838;-5.9742265,7.637268,-1.4891034
00:48.941;-8.937165,3.7288957,-1.5681391
00:48.973;-9.481732,2.2959256,-1.0312057
00:49.006;-8.700657,4.342769,-1.2949572
00:49.072;-6.732849,6.9534903,-1.5976278
00:49.104;-3.942801,8.822055,-1.6914825
00:49.175;-0.1818718,9.616003,-1.9323317
00:49.203;4.2300534,8.392447,-2.8119025
00:49.244;7.7185493,4.826264,-3.6559973
00:49.314;8.621771,2.844834,-3.7158728
00:49.438;7.8763213,5.002148,-3.02955
00:49.597;4.229455,8.566835,-2.2263203
00:49.759;-1.7083974,9.5699,-1.317111
00:49.919;-6.947353,6.787336,-1.3793815
00:50.077;-9.748927,0.5230124,-0.9611513
00:50.239;-9.774524,-0.45894563,-0.6969507
00:50.399;-8.39619,4.946763,-1.1274555
00:50.558;-3.9510338,8.81936,-1.6863931
00:50.718;-0.7003935,9.642199,-1.664838
00:50.878;0.13382171,9.648486,-1.7676741
00:51.041;0.13651611,9.663156,-1.6851956
00:51.200;0.16435821,9.668394,-1.6524138
00:51.358;0.16765137,9.67992,-1.5826589
00:51.518;0.13022919,9.687105,-1.5417938
00:51.678;0.1167572,9.686208,-1.5486795
00:51.838;0.1565744,9.6775255,-1.5986755
00:51.999;0.15103592,9.674532,-1.6169375
00:52.158;0.11585907,9.674382,-1.6206797
00:52.319;0.03727249,9.66555,-1.676813
00:52.478;0.02469864,9.668244,-1.6615448
00:52.638;0.02799179,9.670341,-1.6488212
00:52.798;0.041613463,9.678574,-1.599424
00:52.968;0.07185058,9.685908,-1.5530205
00:53.118;0.11496094,9.678274,-1.5980768
00:53.279;-0.3001259,9.390273,-2.8226802
00:53.445;0.18217117,7.1778736,-6.68435
00:53.611;0.011376343,9.809701,0.07409592
00:53.790;-0.3106041,9.803713,0.16151413
00:53.939;0.12394226,9.295969,-3.1313384
00:54.099;0.23336472,9.131311,-3.5775604
00:54.258;0.20148101,9.3277025,-3.0311966
00:54.423;0.084723815,9.356743,-2.9460237
00:54.588;0.06556366,9.347162,-2.9770093
00:54.738;0.081580356,9.355096,-2.9514124
00:54.898;-0.13471985,8.962163,-3.9871087
00:55.082;0.6089337,5.6001544,-8.031399
00:55.218;0.6450087,9.640253,-1.6982186
00:55.378;0.07649094,8.910371,-4.1029677
00:55.539;-0.065264285,9.097182,-3.6705172
00:55.710;-0.15328126,9.2151375,-3.3606615
00:55.868;-0.083675995,9.195378,-3.4164953
00:56.033;0.016016694,9.241482,-3.2909064
00:56.188;-0.5198689,8.256231,-5.2726355
00:56.349;-0.472717,8.420589,-5.0105305
00:56.509;0.585732,9.580677,-2.0252883
00:56.672;0.37541932,9.613009,-1.919159
00:56.828;0.13980927,9.598789,-2.0197499
00:56.989;-0.08038285,9.634415,-1.8456619
00:57.149;-0.055534516,9.63696,-1.8332378
00:57.316;-0.013921051,9.629625,-1.8720071
00:57.469;0.0011975098,9.62259,-1.9080821
00:57.629;0.056582335,9.623937,-1.9005977
00:57.789;0.066312104,9.621991,-1.9097286
00:57.949;0.09280701,9.626183,-1.8872753
00:58.772;0.101339266,9.629775,-1.8685642
00:58.801;0.11091934,9.631122,-1.8612295
00:58.840;0.12783417,9.627829,-1.8770965
00:58.865;0.12588821,9.617351,-1.9300864
00:58.894;0.1128653,9.607172,-1.9808308
00:58.925;0.07499405,9.594897,-2.0416045
00:59.089;0.028590545,9.581575,-2.104324
00:59.248;-0.010178833,9.572444,-2.1453388
00:59.409;-0.011076965,9.569301,-2.1595592
00:59.569;-0.002694397,9.568702,-2.1619542
00:59.727;0.01751358,9.570349,-2.154919
00:59.888;0.032931518,9.567354,-2.1679418
01:00.049;0.04430786,9.557625,-2.210154
01:00.217;1.5579602,9.644744,-0.88600755
01:00.368;4.9594865,5.778883,6.1839404
01:00.529;-1.0720706,0.2748285,9.74728
01:00.689;-3.207979,-1.3937516,9.165291
01:00.849;-3.4275723,-0.07065307,9.191486
01:01.010;-3.218607,0.33919466,9.260792
01:01.169;-3.005001,1.3771362,9.236243
01:01.329;-2.5078847,0.81011534,9.44925
01:01.489;-2.199077,1.0002201,9.507778
01:01.649;-2.0131636,1.1722124,9.529334
