00:02.615;0.jpg
00:02.835;1.jpg
00:03.178;2.jpg
00:03.588;3.jpg
00:04.015;4.jpg
00:04.449;5.jpg
00:04.896;6.jpg
00:05.305;7.jpg
00:05.715;8.jpg
00:06.118;9.jpg
00:06.515;10.jpg
00:06.817;11.jpg
00:07.230;12.jpg
00:07.622;13.jpg
00:08.042;14.jpg
00:08.335;15.jpg
00:08.731;16.jpg
00:09.141;17.jpg
00:09.474;18.jpg
00:09.952;19.jpg
00:10.459;20.jpg
00:10.863;21.jpg
00:11.163;22.jpg
00:11.568;23.jpg
00:11.876;24.jpg
00:12.171;25.jpg
00:12.484;26.jpg
00:12.875;27.jpg
00:13.183;28.jpg
00:13.501;29.jpg
00:13.895;30.jpg
00:14.190;31.jpg
00:14.628;32.jpg
00:15.002;33.jpg
00:15.425;34.jpg
00:15.708;35.jpg
00:16.012;36.jpg
00:16.309;37.jpg
00:16.617;38.jpg
00:16.958;39.jpg
00:17.436;40.jpg
00:17.824;41.jpg
00:18.743;42.jpg
00:19.134;43.jpg
00:19.553;44.jpg
00:19.945;45.jpg
00:20.262;46.jpg
00:20.654;47.jpg
00:21.084;48.jpg
00:21.460;49.jpg
00:21.875;50.jpg
00:22.275;51.jpg
00:22.685;52.jpg
00:23.083;53.jpg
00:23.396;54.jpg
00:23.789;55.jpg
00:24.205;56.jpg
00:24.503;57.jpg
00:24.908;58.jpg
00:25.307;59.jpg
00:25.703;60.jpg
00:26.026;61.jpg
00:26.423;62.jpg
00:26.816;63.jpg
00:27.224;64.jpg
00:27.577;65.jpg
00:27.934;66.jpg
00:29.083;67.jpg
00:29.489;68.jpg
00:29.923;69.jpg
00:30.302;70.jpg
00:30.788;71.jpg
00:31.214;72.jpg
00:31.623;73.jpg
00:32.025;74.jpg
00:32.520;75.jpg
00:32.935;76.jpg
00:33.430;77.jpg
00:33.812;78.jpg
00:34.263;79.jpg
00:34.610;80.jpg
00:34.995;81.jpg
00:35.309;82.jpg
00:35.716;83.jpg
00:36.114;84.jpg
00:36.476;85.jpg
00:36.850;86.jpg
00:37.223;87.jpg
00:37.630;88.jpg
00:38.662;89.jpg
00:39.167;90.jpg
00:39.583;91.jpg
00:39.909;92.jpg
00:40.351;93.jpg
00:40.859;94.jpg
00:41.263;95.jpg
00:41.711;96.jpg
00:42.124;97.jpg
00:42.485;98.jpg
00:42.880;99.jpg
00:43.487;100.jpg
00:43.892;101.jpg
00:44.302;102.jpg
00:44.695;103.jpg
00:45.124;104.jpg
00:45.547;105.jpg
00:45.923;106.jpg
00:46.328;107.jpg
00:46.768;108.jpg
00:47.224;109.jpg
00:47.627;110.jpg
00:48.035;111.jpg
00:49.279;112.jpg
00:49.647;113.jpg
00:50.135;114.jpg
00:50.480;115.jpg
00:50.859;116.jpg
00:51.223;117.jpg
00:51.594;118.jpg
00:51.990;119.jpg
00:52.391;120.jpg
00:52.781;121.jpg
00:53.088;122.jpg
00:53.401;123.jpg
00:53.829;124.jpg
00:54.297;125.jpg
00:54.697;126.jpg
00:55.073;127.jpg
00:55.555;128.jpg
00:56.056;129.jpg
00:56.460;130.jpg
00:56.922;131.jpg
00:57.340;132.jpg
00:57.767;133.jpg
00:59.073;134.jpg
00:59.478;135.jpg
00:59.854;136.jpg
01:00.291;137.jpg
01:00.738;138.jpg
01:01.206;139.jpg
01:01.569;140.jpg
01:01.786;141.jpg
01:01.986;142.jpg
