00:01.688;0.jpg
00:01.849;1.jpg
00:01.989;2.jpg
00:02.129;3.jpg
00:02.266;4.jpg
00:02.406;5.jpg
00:02.551;6.jpg
00:02.684;7.jpg
00:02.825;8.jpg
00:02.965;9.jpg
00:03.108;10.jpg
00:03.247;11.jpg
00:03.389;12.jpg
00:03.528;13.jpg
00:03.669;14.jpg
00:03.810;15.jpg
00:03.951;16.jpg
00:04.088;17.jpg
00:04.236;18.jpg
00:04.369;19.jpg
00:04.519;20.jpg
00:04.656;21.jpg
00:04.868;22.jpg
00:05.079;23.jpg
00:05.288;24.jpg
00:05.428;25.jpg
00:05.565;26.jpg
00:05.704;27.jpg
00:05.985;28.jpg
00:06.125;29.jpg
00:06.268;30.jpg
00:06.406;31.jpg
00:06.547;32.jpg
00:06.689;33.jpg
00:06.829;34.jpg
00:06.967;35.jpg
00:07.182;36.jpg
00:07.321;37.jpg
00:07.530;38.jpg
00:07.675;39.jpg
00:07.817;40.jpg
00:07.955;41.jpg
00:08.098;42.jpg
00:08.231;43.jpg
00:08.371;44.jpg
00:08.515;45.jpg
00:08.651;46.jpg
00:08.794;47.jpg
00:08.933;48.jpg
00:09.083;49.jpg
00:09.286;50.jpg
00:09.425;51.jpg
00:09.568;52.jpg
00:09.706;53.jpg
00:09.846;54.jpg
00:09.992;55.jpg
00:10.207;56.jpg
00:10.689;57.jpg
00:10.833;58.jpg
00:10.968;59.jpg
00:11.112;60.jpg
00:11.250;61.jpg
00:11.389;62.jpg
00:11.530;63.jpg
00:11.670;64.jpg
00:11.818;65.jpg
00:11.954;66.jpg
00:12.096;67.jpg
00:12.232;68.jpg
00:12.372;69.jpg
00:12.517;70.jpg
00:12.657;71.jpg
00:12.801;72.jpg
00:12.933;73.jpg
00:13.074;74.jpg
00:13.214;75.jpg
00:13.354;76.jpg
00:13.493;77.jpg
00:13.664;78.jpg
00:13.850;79.jpg
00:13.983;80.jpg
00:14.201;81.jpg
00:14.544;82.jpg
00:14.688;83.jpg
00:14.837;84.jpg
00:14.971;85.jpg
00:15.184;86.jpg
00:15.880;87.jpg
00:16.018;88.jpg
00:16.160;89.jpg
00:16.307;90.jpg
00:16.442;91.jpg
00:16.585;92.jpg
00:16.723;93.jpg
00:16.882;94.jpg
00:17.003;95.jpg
00:17.148;96.jpg
00:17.286;97.jpg
00:17.423;98.jpg
00:17.571;99.jpg
00:17.703;100.jpg
00:17.917;101.jpg
00:18.057;102.jpg
00:18.211;103.jpg
00:18.336;104.jpg
00:18.483;105.jpg
00:18.617;106.jpg
00:18.759;107.jpg
00:18.968;108.jpg
00:19.107;109.jpg
00:19.248;110.jpg
00:19.388;111.jpg
00:19.531;112.jpg
00:19.672;113.jpg
00:19.832;114.jpg
00:19.948;115.jpg
00:20.102;116.jpg
00:20.320;117.jpg
00:20.532;118.jpg
00:20.725;119.jpg
00:20.935;120.jpg
00:21.080;121.jpg
00:21.232;122.jpg
00:21.642;123.jpg
00:21.779;124.jpg
00:21.916;125.jpg
00:22.059;126.jpg
00:22.194;127.jpg
00:22.336;128.jpg
00:22.478;129.jpg
00:22.618;130.jpg
00:22.757;131.jpg
00:22.976;132.jpg
00:23.108;133.jpg
00:23.249;134.jpg
00:23.397;135.jpg
00:23.532;136.jpg
00:23.667;137.jpg
00:23.811;138.jpg
00:23.949;139.jpg
00:24.090;140.jpg
00:24.231;141.jpg
00:24.378;142.jpg
00:24.511;143.jpg
00:24.653;144.jpg
00:25.001;145.jpg
00:25.225;146.jpg
00:25.506;147.jpg
00:25.713;148.jpg
00:25.922;149.jpg
00:26.063;150.jpg
00:26.197;151.jpg
00:26.336;152.jpg
00:26.484;153.jpg
00:26.631;154.jpg
00:26.758;155.jpg
00:26.899;156.jpg
00:27.043;157.jpg
00:27.180;158.jpg
00:27.324;159.jpg
00:27.460;160.jpg
00:27.601;161.jpg
00:27.746;162.jpg
00:27.950;163.jpg
00:28.097;164.jpg
00:28.232;165.jpg
00:28.382;166.jpg
00:28.584;167.jpg
00:28.725;168.jpg
00:28.867;169.jpg
00:29.008;170.jpg
00:29.143;171.jpg
00:29.289;172.jpg
00:29.428;173.jpg
00:29.569;174.jpg
00:29.779;175.jpg
00:30.129;176.jpg
00:30.827;177.jpg
00:30.968;178.jpg
00:31.113;179.jpg
00:31.252;180.jpg
00:31.390;181.jpg
00:31.534;182.jpg
00:31.674;183.jpg
00:31.810;184.jpg
00:31.950;185.jpg
00:32.091;186.jpg
00:32.243;187.jpg
00:32.379;188.jpg
00:32.518;189.jpg
00:32.727;190.jpg
00:32.866;191.jpg
00:33.001;192.jpg
00:33.142;193.jpg
00:33.356;194.jpg
00:33.494;195.jpg
00:33.636;196.jpg
00:33.779;197.jpg
00:33.923;198.jpg
00:34.062;199.jpg
00:34.200;200.jpg
00:34.337;201.jpg
00:34.552;202.jpg
00:34.760;203.jpg
00:34.973;204.jpg
00:35.186;205.jpg
00:35.399;206.jpg
00:35.600;207.jpg
00:35.808;208.jpg
00:35.949;209.jpg
00:36.130;210.jpg
00:36.262;211.jpg
00:36.406;212.jpg
00:36.618;213.jpg
00:36.826;214.jpg
00:36.964;215.jpg
00:37.109;216.jpg
00:37.243;217.jpg
00:37.474;218.jpg
00:37.595;219.jpg
00:37.735;220.jpg
00:37.879;221.jpg
00:38.020;222.jpg
00:38.157;223.jpg
00:38.326;224.jpg
00:38.507;225.jpg
00:38.733;226.jpg
00:38.858;227.jpg
00:39.004;228.jpg
00:39.136;229.jpg
00:39.278;230.jpg
00:39.417;231.jpg
00:39.559;232.jpg
00:39.717;233.jpg
00:39.842;234.jpg
00:39.987;235.jpg
00:40.121;236.jpg
00:40.546;237.jpg
00:41.043;238.jpg
00:41.317;239.jpg
00:41.454;240.jpg
00:41.595;241.jpg
00:41.733;242.jpg
00:41.946;243.jpg
00:42.156;244.jpg
00:42.368;245.jpg
00:42.581;246.jpg
00:42.722;247.jpg
00:42.857;248.jpg
00:42.999;249.jpg
00:43.233;250.jpg
00:43.419;251.jpg
00:43.561;252.jpg
00:43.704;253.jpg
00:43.841;254.jpg
00:43.980;255.jpg
00:44.124;256.jpg
00:44.262;257.jpg
00:44.404;258.jpg
00:44.541;259.jpg
00:44.684;260.jpg
00:44.822;261.jpg
00:44.964;262.jpg
00:45.182;263.jpg
00:45.671;264.jpg
00:45.807;265.jpg
00:45.945;266.jpg
00:46.087;267.jpg
00:46.226;268.jpg
00:46.372;269.jpg
00:46.508;270.jpg
00:46.648;271.jpg
00:46.786;272.jpg
00:46.931;273.jpg
00:47.066;274.jpg
00:47.208;275.jpg
00:47.350;276.jpg
00:47.490;277.jpg
00:47.631;278.jpg
00:47.773;279.jpg
00:47.920;280.jpg
00:48.055;281.jpg
00:48.193;282.jpg
00:48.332;283.jpg
00:48.476;284.jpg
00:48.683;285.jpg
00:48.822;286.jpg
00:48.966;287.jpg
00:49.176;288.jpg
00:49.322;289.jpg
00:49.456;290.jpg
00:49.596;291.jpg
00:49.735;292.jpg
00:49.881;293.jpg
00:50.016;294.jpg
00:50.166;295.jpg
00:50.443;296.jpg
00:50.727;297.jpg
00:50.934;298.jpg
00:51.069;299.jpg
00:51.208;300.jpg
00:51.353;301.jpg
00:51.561;302.jpg
00:51.778;303.jpg
00:51.913;304.jpg
00:52.055;305.jpg
00:52.199;306.jpg
00:52.332;307.jpg
00:52.472;308.jpg
00:52.617;309.jpg
00:52.752;310.jpg
00:52.894;311.jpg
00:53.039;312.jpg
00:53.173;313.jpg
00:53.313;314.jpg
00:53.456;315.jpg
00:53.601;316.jpg
00:53.737;317.jpg
00:53.877;318.jpg
00:54.021;319.jpg
00:54.300;320.jpg
00:54.437;321.jpg
00:54.579;322.jpg
00:54.718;323.jpg
00:54.860;324.jpg
00:54.999;325.jpg
00:55.140;326.jpg
00:55.351;327.jpg
00:55.631;328.jpg
00:56.050;329.jpg
00:56.198;330.jpg
00:56.402;331.jpg
00:56.542;332.jpg
00:56.690;333.jpg
00:56.825;334.jpg
00:56.968;335.jpg
00:57.104;336.jpg
00:57.244;337.jpg
00:57.383;338.jpg
00:57.553;339.jpg
00:57.739;340.jpg
00:57.881;341.jpg
00:58.016;342.jpg
00:58.155;343.jpg
00:58.297;344.jpg
00:58.438;345.jpg
00:58.576;346.jpg
00:58.718;347.jpg
00:58.859;348.jpg
00:58.999;349.jpg
00:59.143;350.jpg
00:59.285;351.jpg
00:59.492;352.jpg
00:59.704;353.jpg
00:59.839;354.jpg
00:59.984;355.jpg
01:00.205;356.jpg
01:00.421;357.jpg
01:00.681;358.jpg
01:00.822;359.jpg
01:00.979;360.jpg
01:01.178;361.jpg
01:01.320;362.jpg
01:01.457;363.jpg
01:01.602;364.jpg
01:01.737;365.jpg
01:01.876;366.jpg
01:02.016;367.jpg
01:02.191;368.jpg
01:02.370;369.jpg
01:02.506;370.jpg
01:02.646;371.jpg
01:02.788;372.jpg
01:02.933;373.jpg
01:03.071;374.jpg
01:03.215;375.jpg
01:03.425;376.jpg
01:03.636;377.jpg
01:03.779;378.jpg
01:03.914;379.jpg
01:04.145;380.jpg
01:04.337;381.jpg
01:04.472;382.jpg
01:04.613;383.jpg
